[{
    "parafia": "Archikatedralna",
    "ulica": "Wawel 3",
    "nd": "07:00 (j. łaciński), 08:00, 09:00 (j. łaciński), 10:00, 11:30, 16:30 (X-III), 17:30 (IV-IX)",
    "pos": {
        "lat": 50.054588,
        "long": 19.935152
    },
    "www": "http://www.katedra-wawelska.pl"
}, {
    "parafia": "Bazylika Mariacka (Wniebowzięcia NMP)",
    "ulica": "Rynek Główny",
    "nd": "06:00, 07:00, 08:00, 09:00, 10:00, 11:15, 12:00, 13:00, 18:30",
    "pos": {
        "lat": 50.061717,
        "long": 19.93895
    },
    "www": "http://www.mariacki.com/"
}, {
    "parafia": "bł. Anieli Salawy",
    "ulica": "al. Kijowska 29",
    "nd": "07:30, 09:00, 10:30, 12:00, 18:00, 19:30",
    "pos": {
        "lat": 50.076735,
        "long": 19.916851
    },
    "www": "http://www.anielasalawa.pl"
}, {
    "parafia": "bł. Jerzego Popiełuszki (Złocień)",
    "ulica": "ul. Agatowa 39",
    "nd": "08:30, 11:30, 16:30",
    "pos": {
        "lat": 50.022574,
        "long": 20.04932
    },
    "www": "http://www.zlocien.diecezja-krakow.pl/"
}, {
    "parafia": "Boskiego Zbawiciela",
    "ulica": "ul. św. Jacka 16",
    "nd": "08:00, 09:30, 11:00 (dla rodziców i dzieci), 13:00, 18:00",
    "pos": {
        "lat": 50.039071,
        "long": 19.920412
    },
    "www": "http://krakow.sds.pl"
}, {
    "parafia": "Bożego Ciała",
    "ulica": "ul. Bożego Ciała 26",
    "nd": "06:30, 08:00, 09:30, 11:00(z udziałem dzieci), 12:15, 16:00, 19:00",
    "pos": {
        "lat": 50.049683,
        "long": 19.944538
    },
    "www": "http://www.bozecialo.net"
}, {
    "parafia": "Chrystusa Króla",
    "ulica": "ul. Zaskale 1",
    "nd": "07:30, 09:00, 11:00 (dla dzieci), 18:00",
    "pos": {
        "lat": 50.047096,
        "long": 19.864763
    },
    "www": "http://www.przegorzaly.pl"
}, {
    "parafia": "Chrystusa Króla",
    "ulica": "al. 29 Listopada 195",
    "nd": "08:00, 09:30, 11:00, 12:30, 18:00",
    "pos": {
        "lat": 50.100571,
        "long": 19.964425
    },
    "www": "http://www.gotyk.home.pl/"
}, {
    "parafia": "Ducha Świętego",
    "ulica": "Podstolice 25, Wieliczka",
    "nd": "07:30, 09:00, 11:00, 16:00",
    "pos": {
        "lat": 49.9667,
        "long": 20.0167
    },
    "www": "http://www.podstolice.diecezja.krakow.pl"
}, {
    "parafia": "Jezusa Chrystusa Odkupiciela Człowieka",
    "ulica": "ul. Stelmachów 137",
    "nd": "08:30, 10:00, 11:30, 19:00",
    "pos": {
        "lat": 50.09490272375515,
        "long": 19.904168844223022
    },
    "www": "http://parafiaredemptor.diecezja.pl/"
}, {
    "parafia": "Kaplica Matki Bożej Częstochowskiej (Kostrze)",
    "ulica": "Kostrze",
    "nd": "10:00, 16:00 (oprócz wakacji)",
    "pos": {
        "lat": 50.030342,
        "long": 19.859019
    },
    "www": "http://parafia.krakow.pl/user_pages.php?user_id=8&page_id=26"
}, {
    "parafia": "Kaplica Szpitala Zakonu Bonifratrów",
    "ulica": "ul. Trynitarska 11",
    "nd": "0,4375",
    "pos": {
        "lat": 50.047474,
        "long": 19.945271
    },
    "www": "http://www.bonifratrzy.pl/index.php?option=18&action=articles_show&art_id=24&menu_id=63&page=10"
}, {
    "parafia": "Kaplica św. Teresy",
    "ulica": "ul. Goryczkowa",
    "nd": "0,333461921296296",
    "pos": {
        "lat": 50.015157,
        "long": 19.920314
    },
    "www": ""
}, {
    "parafia": "Klasztor pw. Opieki św. Józefa (Karmelitanki Bose)",
    "ulica": "ul. Łobzowska 40",
    "nd": "0,333438541666667",
    "pos": {
        "lat": 50.070941,
        "long": 19.930669
    },
    "www": "http://www.karmel.pl/mniszki/lobzow/"
}, {
    "parafia": "Kościół Przemienienia Pańskiego, Pijarzy",
    "ulica": "ul. Pijarska 2",
    "nd": "08:30, 10:00, 11:30, 13:00, 19:00",
    "pos": {
        "lat": 50.065158,
        "long": 19.939408
    },
    "www": "http://www.pijarzy.pl/"
}, {
    "parafia": "Kościół św. Bartłomieja",
    "ulica": "ul. Klasztorna 4",
    "nd": "10:15 (dla dzieci), 11:30",
    "pos": {
        "lat": 50.065634,
        "long": 20.051806
    },
    "www": ""
}, {
    "parafia": "Księży Misjonarzy (Stradom)",
    "ulica": "ul. Stradom 6",
    "nd": "06:00, 07:30, 09:00, 10:30, 11:30, 13:00, 19:00",
    "pos": {
        "lat": 50.053522,
        "long": 19.93997
    },
    "www": "http://misjonarze.org/index.php/stradom-kosciol/"
}, {
    "parafia": "Matki Boskiej Częstochowskiej",
    "ulica": "ul. G. Korzeniaka 16",
    "nd": "07:00, 09:00, 11:00 (suma), 18:00",
    "pos": {
        "lat": 50.072197,
        "long": 19.833991
    },
    "www": "http://www.olszanica.kapucyni.pl"
}, {
    "parafia": "Matki Bożej Dobrej Rady",
    "ulica": "al. Dygasińskiego 44",
    "nd": "06:30, 08:00, 09:30, 11:00 (dla dzieci), 12:30, 18:00, 19:30 (bez VII i VIII)",
    "pos": {
        "lat": 50.020369,
        "long": 19.988257
    },
    "www": "http://www.parafiaprokocim.pl/"
}, {
    "parafia": "Matki Bożej Dobrej Rady - kaplica",
    "ulica": "ul. Górników 29",
    "nd": "10:00, 11:30, 17:00",
    "pos": {
        "lat": 50.020261,
        "long": 19.994869
    },
    "www": "http://www.parafia.prokocim.krakow.pl/"
}, {
    "parafia": "Matki Bożej Fatimskiej",
    "ulica": "ul. Mały Płaszów 11",
    "nd": "07:30, 09:30, 11:00 (dla dzieci), 12:15 (oprócz wakacji), 18:00",
    "pos": {
        "lat": 50.041942,
        "long": 20.001968
    },
    "www": "http://fatimska.profeto.pl/"
}, {
    "parafia": "Matki Bożej Fatimskiej",
    "ulica": "Golkowice 457",
    "nd": "08:30, 10:00, 11:30, 18:00",
    "pos": {
        "lat": 49.972955,
        "long": 19.978514
    },
    "www": "http://www.fatima-golkowice.com/"
}, {
    "parafia": "Matki Bożej Królowej Polski (Arka Pana)",
    "ulica": "ul. Obronców Krzyża 1",
    "nd": "06:30, 08:00, 09:30, 10:00 (w kaplicy pojednania, nie ma w wakacje) 11:00, 12:30, 14:00, 16:00, 17:30, 19:00",
    "pos": {
        "lat": 50.085012,
        "long": 20.029099
    },
    "www": "http://www.arkapana.pl/"
}, {
    "parafia": "Matki Bożej Nieustającej Pomocy",
    "ulica": "ul. Księcia Józefa 176",
    "nd": "08:00, 10:00, 11:30 (IX-VI), 18:00",
    "pos": {
        "lat": 50.043848,
        "long": 19.82472
    },
    "www": ""
}, {
    "parafia": "Matki Bożej Nieustającej Pomocy",
    "ulica": "Rynek 3, Zielonki (Bibice)",
    "nd": "08:00, 11:00, 16:00",
    "pos": {
        "lat": 50.126391,
        "long": 19.952894
    },
    "www": "http://www.facebook.com/BibiceparafiaPwMatkiBozejNieustajacejPomocy"
}, {
    "parafia": "Matki Bożej Różańcowej",
    "ulica": "ul. Nowosądecka 41",
    "nd": "07:00, 08:30, 10:00, 11:30, 13:00, 18:00",
    "pos": {
        "lat": 50.014959,
        "long": 19.972293
    },
    "www": "http://www.parafiapiaskinowe.pl/"
}, {
    "parafia": "Matki Bożej Zwycięskiej",
    "ulica": "ul. Zakopiańska 86",
    "nd": "07:00, 09:00, 10:30 (dzieci), 12:00, 18:00 (młodzież)",
    "pos": {
        "lat": 50.008245,
        "long": 19.926275
    },
    "www": "http://www.katolicki.net"
}, {
    "parafia": "MB Częstochowskiej",
    "ulica": "os. Szklane Domy 7",
    "nd": "06:30, 08:00, 09:30 (młodzież), 11:00, 12:30 (dzieci), 17:00, 19:00, 20:30",
    "pos": {
        "lat": 50.075451,
        "long": 20.045575
    },
    "www": "http://www.szklanedomy.cystersi.pl/"
}, {
    "parafia": "MB Fatimskiej",
    "ulica": "ul. Komandosów 18",
    "nd": "07:00, 09:00, 10:00 (w kościółku Św. Bartłomieja, z wyjątkiem wakacji), 10:30, 12:00, 17:00 (brak w okresie od Wielkanocy do ostatniej niedzieli września), 18:30, 20:00",
    "pos": {
        "lat": 50.040987,
        "long": 19.930817
    },
    "www": "http://www.podwawelskie.pl/"
}, {
    "parafia": "MB Królowej Polski",
    "ulica": "ul. Zamiejska 6",
    "nd": "07:00, 08:30, 10:00 (w ciągu roku szkolnego, dla przedszkolaków), 11:15, 12:30, 14:00, 18:00, 20:00",
    "pos": {
        "lat": 50.011632,
        "long": 19.897757
    },
    "www": "http://www.mbkp.eu/"
}, {
    "parafia": "MB Królowej Polski",
    "ulica": "al. Panieńskich Skał 18",
    "nd": "08:00, 09:30, 11:00, 12:30 (z wyjątkiem VII, VIII), 18:00",
    "pos": {
        "lat": 50.063842,
        "long": 19.862051
    },
    "www": "http://www.parafia.justowska.info"
}, {
    "parafia": "MB Nieustajacej Pomocy",
    "ulica": "ul. Hemara 1",
    "nd": "07:30, 09:00, 10:30 (dla dzieci), 12:00, 18:00",
    "pos": {
        "lat": 50.083744,
        "long": 19.845017
    },
    "www": "http://www.mydlniki.diecezja.pl"
}, {
    "parafia": "MB Nieustajacej Pomocy",
    "ulica": "ul. Zamoyskiego 56",
    "nd": "07:30, 09:00, 10:30 (dla dzieci), 12:00, 16:00 (z wyjątkiem wakacji), 18:30, (z udziałem młodzieży bierzmowanej i studentów), 20:00)",
    "pos": {
        "lat": 50.039495,
        "long": 19.943148
    },
    "www": "http://www.redemptorysci.krakow.pl"
}, {
    "parafia": "MB Nieustajacej Pomocy",
    "ulica": "os. Bohaterów Września 33",
    "nd": "06:00, 07:30, 09:00, 10:30, 12:00, 13:30, 16:30, 18:00, 19:30",
    "pos": {
        "lat": 50.101703,
        "long": 20.011239
    },
    "www": "http://www.maryja-mistrzejowice.pl/"
}, {
    "parafia": "MB Ostrobramskiej",
    "ulica": "ul. j. Meissnera 20",
    "nd": "06:30, 08:00, 09:30, 11:00, 12:30, 18:00 (z wyjątkiem wakacji), 19:15",
    "pos": {
        "lat": 50.074658,
        "long": 19.977547
    },
    "www": "http://www.wieczysta.katolicki.eu"
}, {
    "parafia": "MB Pocieszenia",
    "ulica": "ul. Bulwarowa 15a",
    "nd": "07:00, 08:30, 10:00, 11:30 (dla dzieci), 13:00, 18:00, 20:00 (dla młodzieży)",
    "pos": {
        "lat": 50.08348,
        "long": 20.041584
    },
    "www": "http://www.kraksak.aidg.pl"
}, {
    "parafia": "MB Rożańcowej",
    "ulica": "ul. Skotnicka 139a",
    "nd": "08:00, 10:00, 11:30, 18:00",
    "pos": {
        "lat": 50.008889,
        "long": 19.875978
    },
    "www": "http://www.parafiaskotniki.pl/"
}, {
    "parafia": "MB Saletyńskiej",
    "ulica": "ul. Cegielniana 43",
    "nd": "07:00, 09:00, 10:30, 12:00 (dla dzieci), 18:00, 20:00",
    "pos": {
        "lat": 50.025245,
        "long": 19.930417
    },
    "www": "http://www.krakow.saletyni.pl"
}, {
    "parafia": "Miłosierdzia Bożego",
    "ulica": "ul. Bandurskiego 12",
    "nd": "08:00, 09:30 (dla młodzieży), 11:00 (z udziałem scholi parafialnej), 12:00, 13:00, 18:00",
    "pos": {
        "lat": 50.069155,
        "long": 19.960272
    },
    "www": "http://www.oficerskie.info"
}, {
    "parafia": "Miłosierdzia Bożego",
    "ulica": "ul. Kurczaba 5",
    "nd": "06:30, 08:00, 09:30, 11:00, 12:30, 18:00 (VII-VIII nie ma), 19:15",
    "pos": {
        "lat": 50.014369,
        "long": 20.003924
    },
    "www": "http://parafianprokocim.org"
}, {
    "parafia": "Miłosierdzia Bożego",
    "ulica": "os. Na Wzgórzach 1a",
    "nd": "06:30, 08:00, 09:30 (dla młodzieży), 11:00 (rodzinna), 12:30 (z wyjątkiem VII-VIII), 16:00, 19:00",
    "pos": {
        "lat": 50.092466,
        "long": 20.05834
    },
    "www": "http://www.milosierdzia-parafia.pl"
}, {
    "parafia": "Mogiła, OO. Cystersi",
    "ulica": "ul. Klasztorna 11",
    "nd": "06:30, 08:00, 09:30, 11:00, 12:30, 14:00, 16:30, 18:00",
    "pos": {
        "lat": 50.064755,
        "long": 20.052952
    },
    "www": "http://www.mogila.cystersi.pl/"
}, {
    "parafia": "Najswiętszego Salwatora",
    "ulica": "ul. Kościuszki 88",
    "nd": "06:30, 07:30, 09:00, 10:30 (dzieci), 12:00, 13:15 (I niedziela miesiąca – chrzty), 19:00",
    "pos": {
        "lat": 50.052387,
        "long": 19.915302
    },
    "www": "http://www.parafiasalwator.pl"
}, {
    "parafia": "Najświętszego Imienia Maryi",
    "ulica": "ul. Dzielskiego 1",
    "nd": "06:00, 07:00, 08:30, 10:00(dla gimnazjalistów), 11:30(dla dzieci), 13:00, 15:00 (od września do czerwca), 19:00(dla młodzieży szkół średnich i pracującej, studentów, absolwentów)",
    "pos": {
        "lat": 50.084151,
        "long": 19.976032
    },
    "www": "http://www.rakowice.pijarzy.pl/"
}, {
    "parafia": "Najświętszego Salwatora",
    "ulica": "ul. św Bronisławy 9",
    "nd": "0,46875",
    "pos": {
        "lat": 50.053506,
        "long": 19.91191
    },
    "www": "http://www.parafiasalwator.pl/"
}, {
    "parafia": "Najświętszego Serca Pana Jezusa",
    "ulica": "ul. Ludźmierska 2",
    "nd": "07:00 (bez wakacji), 08:30, 10:00, 11:30, 13:00 (nie ma w wakacje), 18:00, 19:30 (dla młodych)",
    "pos": {
        "lat": 50.079387,
        "long": 20.035544
    },
    "www": "http://www.sercepanajezusa.pl/"
}, {
    "parafia": "Najświętszego Serca Pana Jezusa",
    "ulica": "ul. Wzgórze 33, Pychowice",
    "nd": "07:30, 09:00 (oprócz wakacji), 10:30 (młodzież), 12:00 (rodzinna), 18:00",
    "pos": {
        "lat": 50.0353,
        "long": 19.890291
    },
    "www": "http://parafia.krakow.pl/user_pages.php?user_id=8&page_id=26"
}, {
    "parafia": "Najświętszego Serca Pana Jezusa",
    "ulica": "ul. hm. Stanisława Millana 13",
    "nd": "07:30, 09:00 (dla młodzieży), 10:30, 12:00 (dla dzieci), 16:00 (od IX-VI) 18:00, 20:00 (VII-VIII)",
    "pos": {
        "lat": 50.016568,
        "long": 19.942895
    },
    "www": "http://www.sercejezusa.katolicki.eu"
}, {
    "parafia": "Najświętszego Serca Pana Jezusa",
    "ulica": "ul. Saska 2",
    "nd": "07:00, 09:00, 10:30, 12:00 (dla dzieci), 18:00, 19:30(dla molodzieży)",
    "pos": {
        "lat": 50.044229,
        "long": 19.984115
    },
    "www": "http://krakow.sercanie.pl"
}, {
    "parafia": "Najświętszego Serca Pana Jezusa",
    "ulica": "ul. Cechowa 144",
    "nd": "07:00, 09:00, 11:00, 16:00",
    "pos": {
        "lat": 50.005785,
        "long": 19.982434
    },
    "www": ""
}, {
    "parafia": "Najświętszego Serca Pana Jezusa",
    "ulica": "ul. Niewielka 1a",
    "nd": "08:00, 10:30, 17:00",
    "pos": {
        "lat": 50.09592,
        "long": 20.089769
    },
    "www": ""
}, {
    "parafia": "Najświętszego Serca Pana Jezusa (Sercanki)",
    "ulica": "ul. Garncarska 24",
    "nd": "07:00, 10:00, 12:00, 18:00",
    "pos": {
        "lat": 50.060445,
        "long": 19.927585
    },
    "www": "http://www.sercanki.org.pl/"
}, {
    "parafia": "Najświętszej Maryi Panny Matki Kościoła",
    "ulica": "ul. Pasteura 1",
    "nd": "07:00, 08:30, 10:00, 11:30 (dzieci), 13:00, 16:00 (od wrzesnia do czerwca), 18:00",
    "pos": {
        "lat": 50.096767,
        "long": 19.932499
    },
    "www": "http://www.matka.kosciola.pl/"
}, {
    "parafia": "Najświętszej Maryi Panny Śnieżnej",
    "ulica": "ul. Mikołajska 21",
    "nd": "0,312722106481481",
    "pos": {
        "lat": 50.061423,
        "long": 19.942382
    },
    "www": "http://www.grodek.mniszki.dominikanie.pl"
}, {
    "parafia": "Najświętszej Maryi Panny z Lourdes",
    "ulica": "ul. Misjonarska 37",
    "nd": "06:30, 08:00, 09:30, 11:00 (dzieci), 11.00 (w Kaplicy Akademickiej dla dzieci przedszkolnych), 12:15 (w Kaplicy Akademickiej dla młodzieży), 12:30, 15:00, 16:30, 18:30, 20:00 (akademicka)",
    "pos": {
        "lat": 50.07096,
        "long": 19.912812
    },
    "www": "http://misjonarska.org.pl/"
}, {
    "parafia": "Narodzenia NMP",
    "ulica": "Zielonki, ul. Ks. Jana Michalika 1",
    "nd": "07:00, 09:45, 12:00, 16:00 (w okresie zimowym), 17:00 (w okresie letnim)",
    "pos": {
        "lat": 50.116488,
        "long": 19.914479
    },
    "www": "http://www.zielonki.krakow.pl/"
}, {
    "parafia": "Narodzenia NMP",
    "ulica": "ul. ks. J. Popiełuszki 35",
    "nd": "07:00, 09:00, 11:00, 12:30 (brak w wakacje), 18:00",
    "pos": {
        "lat": 50.015475,
        "long": 20.039342
    },
    "www": "http://www.biezanow.diecezja-krakow.pl/"
}, {
    "parafia": "Narodzenia NMP - kaplica cmentarna",
    "ulica": "ul. Mała Góra",
    "nd": "0,416666666666667",
    "pos": {
        "lat": 50.010553,
        "long": 20.021666
    },
    "www": "http://www.biezanow.diecezja-krakow.pl/"
}, {
    "parafia": "Narodzenia św. Jana Chrzciciela",
    "ulica": "Korzkiew 3",
    "nd": "08:00, 09:30, 11:00, 12:30, 16:00",
    "pos": {
        "lat": 50.164161,
        "long": 19.882381
    },
    "www": "http://www.parafiakorzkiew.pl/"
}, {
    "parafia": "Nawiedzenia NMP",
    "ulica": "ul. Ks. Prymasa Stefana Wyszyńskiego 6",
    "nd": "08:00, 09:30 (młodzież), 11:00 (dla dzieci), 18:00",
    "pos": {
        "lat": 50.007176,
        "long": 20.007197
    },
    "www": "http://parafia-nawiedzenia.info/"
}, {
    "parafia": "Nawiedzenia NMP - OO. Karmelici",
    "ulica": "ul. Karmelicka 19",
    "nd": "06:00, 07:00, 08:00, 09:00, 10:00, 11:00, 12:00, 13:00, 16:30, 19:00",
    "pos": {
        "lat": 50.065197,
        "long": 19.931798
    },
    "www": "http://www.parafia.karmelici.pl/"
}, {
    "parafia": "Niepokalanego Poczecia NMP",
    "ulica": "ul. Chełmońskiego 41",
    "nd": "06:00, 07:30, 09:00 (dla młodzieży), 10:30 (dla dzieci), 12:00, 13:15, 18:00, 20:00",
    "pos": {
        "lat": 50.087473,
        "long": 19.910526
    },
    "www": "http://www.parafia-azory.pl/"
}, {
    "parafia": "Niepokalanego Poczęcia NMP (św. Łazarza)",
    "ulica": "ul. Kopernika 19",
    "nd": "0,416853703703704",
    "pos": {
        "lat": 50.062813,
        "long": 19.951452
    },
    "www": ""
}, {
    "parafia": "Niepokalanego Serca NMP",
    "ulica": "ul. Półłanki 100",
    "nd": "08:00, 10:00, 12:00 (z wyjątkiem wakacji), 18:00",
    "pos": {
        "lat": 50.042777,
        "long": 20.045425
    },
    "www": "http://www.niepokalanesercemaryi.pl/"
}, {
    "parafia": "OO. Bernardyni",
    "ulica": "ul. Bernardyńska 2",
    "nd": "07:00, 08:00, 09:00, 10:00, 11:00, 12:00, 16:00, 18:30",
    "pos": {
        "lat": 50.053306,
        "long": 19.937651
    },
    "www": "http://www.bernardyni.com.pl/"
}, {
    "parafia": "OO. Dominikanie",
    "ulica": "ul. Stolarska 12",
    "nd": "07:00, 08:00, 09:00, 10:30 (konwentualna), 12:00, 13:30, 17:00, 19:00 (młodzież), 20:20 (msza akademicka), 21:30",
    "pos": {
        "lat": 50.059263,
        "long": 19.939144
    },
    "www": "http://www.krakow.dominikanie.pl/"
}, {
    "parafia": "OO. Franciszkanie",
    "ulica": "Plac Wszystkich Świętych 5",
    "nd": "06:30 (w kaplicy Matki Bożej), 08:00, 09:30, 11:00, 12:00, 15:30 (w j. włoskim), 16:30, 19:00",
    "pos": {
        "lat": 50.059277,
        "long": 19.936607
    },
    "www": "http://www.franciszkanska.pl/"
}, {
    "parafia": "OO. Jezuici",
    "ulica": "ul. Kopernika 26",
    "nd": "06:00, 07:30, 09:00, 11:00, 12:30, 15:30, 18:00",
    "pos": {
        "lat": 50.062325,
        "long": 19.949596
    },
    "www": "http://bazylika.deon.pl/"
}, {
    "parafia": "OO. Kapucyni",
    "ulica": "ul. Loretańska 11",
    "nd": "06:30, 08:00, 09:30, 11:00 (dla dzieci), 12:30, 16:30, 19:00",
    "pos": {
        "lat": 50.061764,
        "long": 19.930421
    },
    "www": "http://www.kapucyni.krakow.pl/"
}, {
    "parafia": "OO. Karmelici Bosi (Niepokalanego Poczęcia NMP)",
    "ulica": "ul. Rakowicka 18",
    "nd": "06:30, 08:00, 09:30, 11:00 (dla dzieci), 12:30, 18:00 (akademicka)",
    "pos": {
        "lat": 50.068343,
        "long": 19.952344
    },
    "www": "http://rakowicka18.pl/kościół-pw.html"
}, {
    "parafia": "OO. Paulini na Skałce",
    "ulica": "ul. Skałeczna 15",
    "nd": "07:00, 08:00, 09:00 (w języku łacińskim), 10:30, 12:30, 17:30, 20:00",
    "pos": {
        "lat": 50.048331,
        "long": 19.937764
    },
    "www": "http://www.skalka.paulini.pl/"
}, {
    "parafia": "Opatrzności Bożej",
    "ulica": "ul. Piłkarska 9",
    "nd": "08:00, 10:00, 12:00, 18:30",
    "pos": {
        "lat": 49.992751,
        "long": 19.932036
    },
    "www": "http://www.swoszowice.diecezja.krakow.pl/"
}, {
    "parafia": "Opatrzności Bożej - kaplica",
    "ulica": "ul. Chałubińskiego 61",
    "nd": "0,375128587962963",
    "pos": {
        "lat": 49.987808,
        "long": 19.941795
    },
    "www": "http://www.swoszowice.diecezja.krakow.pl/"
}, {
    "parafia": "Pana Jezusa Dobrego Pasterza",
    "ulica": "ul. Dobrego Pasterza 4",
    "nd": "06:30, 08:00, 09:00, 10:00, 11:15 (dla dzieci), 12:30, 16:00 (bez lipca i sierpnia), 18:00, 19:15 (akademicka)",
    "pos": {
        "lat": 50.088577,
        "long": 19.958358
    },
    "www": "http://www.dobrypasterz.krakow.pl"
}, {
    "parafia": "parafia Świętego Krzyża",
    "ulica": "św. Krzyża 23",
    "nd": "09:00, 10:30 (msza trydencka), 12:00, 13:15, 18:00, 19:15 (msza trydencka), 21:00",
    "pos": {
        "lat": 50.063086,
        "long": 19.943374
    },
    "www": "http://www.krzyzkrakow.pl/"
}, {
    "parafia": "Podwyższenia Krzyża Świętego",
    "ulica": "ul. Witosa 9",
    "nd": "07:00, 08:30, 10:00, 11:30, 13:00, 14:15 (z wyjątkiem wakacji), 17:00, 19:00",
    "pos": {
        "lat": 50.011765,
        "long": 19.960957
    },
    "www": "http://www.krakow-kurdwanow.parafia.info.pl/"
}, {
    "parafia": "Podwyższenia Krzyża Świętego",
    "ulica": "ul. Mieczysława Wrony 104",
    "nd": "08:00, 10:00, 11:30, 17:00",
    "pos": {
        "lat": 49.988341,
        "long": 19.867365
    },
    "www": "http://www.krakow-sidzina.pl/"
}, {
    "parafia": "Przemienienia Pańskiego",
    "ulica": "ul. Bogdanowskiego 14",
    "nd": "08:00, 10:00, 12:00, 16:00",
    "pos": {
        "lat": 49.982235,
        "long": 19.953286
    },
    "www": "http://www.wroblowice.katolicki.eu/"
}, {
    "parafia": "Rektorat bł. Jana Pawła II (Ruczaj)",
    "ulica": "ul. Bobrzyńskiego 8",
    "nd": "09:00, 10:30 (dla dzieci-poza VII i VIII), 12:00, 17:00 (poza VII i VIII), 19:00 (dla studentów)",
    "pos": {
        "lat": 50.022819,
        "long": 19.899397
    },
    "www": "http://jp2ruczaj.pl/"
}, {
    "parafia": "Sanktuarium Bożego Miłosierdzia",
    "ulica": "Łagiewniki, ul. św. Siostry Faustyny 3",
    "nd": "07:00 (kaplica, telewizyjna), 08:30 (kaplica), 09:00, 10:30, 12:00, 13:30, 15:20, 18:00, 19:00 (kaplica)",
    "pos": {
        "lat": 50.021698,
        "long": 19.93696
    },
    "www": "http://www.milosierdzie.pl"
}, {
    "parafia": "Sanktuarium Ecce Homo św. Brata Alberta",
    "ulica": "ul. Woronicza 10",
    "nd": "0,3125",
    "pos": {
        "lat": 50.086936,
        "long": 19.957553
    },
    "www": "http://www.albertynki.pl/sanktuarium.php"
}, {
    "parafia": "Sanktuarium Jana Pawła II",
    "ulica": "ul. Totus Tuus 32",
    "nd": "08:00, 10:00, 11:00 (dla dzieci), 12:30, 17:00",
    "pos": {
        "lat": 50.012976,
        "long": 19.936565
    },
    "www": "http://www.sanktuariumjp2.pl/"
}, {
    "parafia": "Sanktuarium Najświętszej Rodziny",
    "ulica": "ul. Aleksandry 1",
    "nd": "06:30, 08:00, 09:30, 11:00, 12:30, 17:00, 19:00",
    "pos": {
        "lat": 50.015507,
        "long": 20.018588
    },
    "www": "http://www.najswietszarodzina.pl"
}, {
    "parafia": "Siostry Felicjanki",
    "ulica": "ul. Smoleńsk 6",
    "nd": "08:00 (nie ma w wakacje), 09:00, 10:00, 11.00 (nie ma w wakacje), 12:00, 19:30",
    "pos": {
        "lat": 50.058813,
        "long": 19.930905
    },
    "www": "http://www.felicjanki.2be.pl"
}, {
    "parafia": "Stygmatów św. Franciszka z Asyżu",
    "ulica": "ul. Ojcowska 1",
    "nd": "07:00, 09:00 (dla młodzieży), 10:30 (dla dzieci), 12:00, 18:00",
    "pos": {
        "lat": 50.091267,
        "long": 19.881008
    },
    "www": "http://www.franciszkanie-bronowice.pl/"
}, {
    "parafia": "św. Agnieszki",
    "ulica": "ul. Dietla 30",
    "nd": "08:30, 10:00, 11:30, 13:00, 16:00",
    "pos": {
        "lat": 50.051204,
        "long": 19.939704
    },
    "www": "http://www.krakow.ordynariat.pl/"
}, {
    "parafia": "św. Andrzeja",
    "ulica": "ul. Grodzka 56",
    "nd": "0,291783564814815",
    "pos": {
        "lat": 50.055959,
        "long": 19.938498
    },
    "www": "http://www.klaryski.pl/"
}, {
    "parafia": "św. Andrzeja Boboli",
    "ulica": "ul. A6 nr 4, Węgrzce",
    "nd": "07:00, 09:00, 10:30 (dla dzieci), 12:00, 16:00",
    "pos": {
        "lat": 50.11967,
        "long": 19.976792
    },
    "www": "http://www.parafia-wegrzce.pl/"
}, {
    "parafia": "św. Anny",
    "ulica": "ul. św. Anny 11",
    "nd": "07:30, 09:00, 10:00, 11:00, 12:00, 13:00, 19:30, 20:30, 21:30",
    "pos": {
        "lat": 50.062089,
        "long": 19.933765
    },
    "www": "http://www.kolegiata-anna.pl/"
}, {
    "parafia": "św. Antoniego z Padwy",
    "ulica": "ul. Pod Strzecha 16",
    "nd": "07:00, 10:00, 12:00, 18:00 (z wyjątkiem wakacji)",
    "pos": {
        "lat": 50.087222,
        "long": 19.874576
    },
    "www": "http://www.antonibronowice.org/"
}, {
    "parafia": "św. Antoniego z Padwy",
    "ulica": "Rzaska, ul. Słoneczna 24",
    "nd": "07:30, 09:30, 11:00, 16:00 (nie ma w wakacje)",
    "pos": {
        "lat": 50.099838,
        "long": 19.838773
    },
    "www": "http://rzaska.diecezja.pl/"
}, {
    "parafia": "św. Apostolów Piotra i Pawla - Tyniec, OO. Benedyktyni",
    "ulica": "ul. Benedyktynska 37",
    "nd": "06:30, 08:30, 10:30, 12:30, 18:00",
    "pos": {
        "lat": 50.01824,
        "long": 19.804837
    },
    "www": ""
}, {
    "parafia": "św. Barbary - OO. Jezuici",
    "ulica": "Mały Rynek 8",
    "nd": "08:00, 09:30, 10.00 (dla młodzieży, w kaplicy Sodalicji na I piętrze nad zakrystią), 11:00, 12:30, 16:00, 18:00, 19:00 (w jęz. niemieckim)",
    "pos": {
        "lat": 50.061192,
        "long": 19.939569
    },
    "www": "http://www.swbarbara.jezuici.pl/"
}, {
    "parafia": "św. Brata Alberta",
    "ulica": "os. Dywizjonu 303, 63",
    "nd": "06:30, 08:00, 09:30, 11:00, 13:00, 14:15 (dla dzieci, chrzty), 16:00, 18:00, 19:00 (zima), 20:00 (lato)",
    "pos": {
        "lat": 50.081358,
        "long": 20.007595
    },
    "www": "http://www.parafia-dywizjonu303.pl/"
}, {
    "parafia": "św. Floriana",
    "ulica": "ul. Warszawska 1b",
    "nd": "06:30, 08:00, 09:30, 11:00, 12:15, 15:15 (z wyjątkiem wakacji), 18:30, 20:00",
    "pos": {
        "lat": 50.067916,
        "long": 19.943728
    },
    "www": "http://www.swflorian.net/"
}, {
    "parafia": "św. Franciszka Salezego",
    "ulica": "u. Krowoderska 16",
    "nd": "08:00, 10:30, 12:00, 17:00",
    "pos": {
        "lat": 50.068604,
        "long": 19.936803
    },
    "www": "http://www.wizytki.pl/"
}, {
    "parafia": "św. Grzegorza Wielkiego",
    "ulica": "ul. Jeziorko 40",
    "nd": "07:00, 09:00, 11:00, 16:00",
    "pos": {
        "lat": 50.087873,
        "long": 20.146954
    },
    "www": "-"
}, {
    "parafia": "św. Idziego",
    "ulica": "ul. Grodzka 65",
    "nd": "09:00, 10:30 (j. angielski), 12:00",
    "pos": {
        "lat": 50.055168,
        "long": 19.938128
    },
    "www": "http://www.krakow.dominikanie.pl/kosciol_sw_idziego.html"
}, {
    "parafia": "św. Jacka",
    "ulica": "ul. Radzikowskiego 49",
    "nd": "08:00, 10:00, 12:00, 19:30",
    "pos": {
        "lat": 50.083747,
        "long": 19.900532
    },
    "www": "http://www.swjacek.info"
}, {
    "parafia": "św. Jadwigi Królowej",
    "ulica": "ul. Łokietka 60",
    "nd": "06:30, 08:00, 09:30, 10:00 (kaplica), 11:00, 12:30, 17:00, 18:30, 20:30",
    "pos": {
        "lat": 50.083957,
        "long": 19.92313
    },
    "www": "http://www.swietajadwiga.diecezja.com.pl/swietajadwiga/"
}, {
    "parafia": "św. Jadwigi Królowej",
    "ulica": "ul. Zagaje 42",
    "nd": "08:00, 09:30, 11:00 (dla dzieci w ciągu roku szkolnego), 12:15, 19:00",
    "pos": {
        "lat": 49.998671,
        "long": 19.910982
    },
    "www": "http://www.swjadwiga.pl/"
}, {
    "parafia": "św. Jana Chrzciciela",
    "ulica": "ul. Dobrego Pasterza 117",
    "nd": "06:30, 08:00, 09:30, 11:00, 12:30, 14:00 (nie ma w wakacje), 18:00 (nie ma w wakacje), 19:30",
    "pos": {
        "lat": 50.08937,
        "long": 19.970323
    },
    "www": "http://www.janchrzciciel.orangespace.pl/head.html"
}, {
    "parafia": "św. Jana Chrzciciela i św. Jana Ewangelisty",
    "ulica": "ul. św. Jana 7",
    "nd": "08:00, 10:00 (dla głuchoniemych), 14:30, 18:00",
    "pos": {
        "lat": 50.063443,
        "long": 19.939023
    },
    "www": "http://www.prezentki.opoka.net.pl/index.php?menu=kosciol_sw_jana"
}, {
    "parafia": "św. Jana Kantego",
    "ulica": "ul. Jabłonkowska 18",
    "nd": "07:30, 09:00, 10:30, 12:00, 13:15 (oprócz wakacji), 17:00 (oprócz wakacji), 18:30, 20:00 (dla studentów)",
    "pos": {
        "lat": 50.07986,
        "long": 19.889247
    },
    "www": "http://www.jankanty.pl/"
}, {
    "parafia": "św. Józefa",
    "ulica": "ul. Zamoyskiego 2",
    "nd": "07:30, 09:00, 10:30 (dla dzieci), 12:00, 18:30, 20:00 (dla studentów i ludzi biznesu)",
    "pos": {
        "lat": 50.043303,
        "long": 19.949893
    },
    "www": "http://jozef.diecezja.pl"
}, {
    "parafia": "św. Józefa (Bernardynek)",
    "ulica": "ul. Poselska 21",
    "nd": "08:00, 09:30, 10:30, 18:30",
    "pos": {
        "lat": 50.058144,
        "long": 19.939284
    },
    "www": ""
}, {
    "parafia": "św. Józefa Oblubieńca NMP",
    "ulica": "os. Kalinowe 5",
    "nd": "07:00, 09:00 (młodzież), 11:00 (dzieci), 13:00, 18:00",
    "pos": {
        "lat": 50.08921,
        "long": 20.013716
    },
    "www": "http://parafia.kalinowe.pl/"
}, {
    "parafia": "św. Judy Tadeusza",
    "ulica": "ul. Wężyka 6",
    "nd": "07:00, 08:30, 10:00, 11:30, 13:00, 18:00",
    "pos": {
        "lat": 50.073049,
        "long": 20.012672
    },
    "www": "http://parafiaczyzyny.katolicki.eu/"
}, {
    "parafia": "św. Karola Boromeusza",
    "ulica": "ul. Zdrowa",
    "nd": "08:00, 09:30, 11:00, 12:15, 17:00 (wrzesień - czerwiec), 18:00",
    "pos": {
        "lat": 50.088287,
        "long": 19.943324
    },
    "www": "http://www.karolboromeusz.diecezja.pl"
}, {
    "parafia": "św. Katarzyny Aleksandryjskiej",
    "ulica": "ul. Augustiańska 7",
    "nd": "07:00 (nie ma w wakacje), 09:00, 11:00 (dzieci), 12:15, 18:00",
    "pos": {
        "lat": 50.049849,
        "long": 19.941261
    },
    "www": "http://www.parafia-kazimierz.augustianie.pl/"
}, {
    "parafia": "św. Kazimierza",
    "ulica": "ul. Bobrowskiego 6",
    "nd": "08:00, 09:30, 11:00, 12:30, 16:30, 18:00 (w VII i VIII 08:00, 09:30, 11:00, 19:00)",
    "pos": {
        "lat": 50.058385,
        "long": 19.96704
    },
    "www": "http://www.grzegorzki.vbiz.pl/glowna.html"
}, {
    "parafia": "św. Kazimierza (Franciszkanie)",
    "ulica": "ul. Reformacka 4",
    "nd": "07:30, 09:00, 10:30, 12:00, 13:00, 16:15, 19:00",
    "pos": {
        "lat": 50.064636,
        "long": 19.935886
    },
    "www": "http://www.reformacka4.pl/"
}, {
    "parafia": "św. Kingi",
    "ulica": "ul. Siemomysła 37",
    "nd": "07:30, 09:30, 11:30, 18:00",
    "pos": {
        "lat": 50.029149,
        "long": 19.970607
    },
    "www": "http://www.kinga.diecezja.krakow.pl/"
}, {
    "parafia": "św. Maksymiliana Marii Kolbego",
    "ulica": "os. Tysiąclecia 86",
    "nd": "06:30, 08:00, 09:30, 11:00, 13:00, 17:00, 19:00 (dla młodzieży i studentów)",
    "pos": {
        "lat": 50.09404,
        "long": 19.996284
    },
    "www": "http://mistrzejowice.net/"
}, {
    "parafia": "Św. Maksymiliana Marii Kolbego w Opatkowicach",
    "ulica": "ul. Dębskiego 6B",
    "nd": "07:30, 10:00, 11:30",
    "pos": {
        "lat": 49.988787,
        "long": 19.911325
    },
    "www": "http://www.parafia-opatkowice.pl/"
}, {
    "parafia": "św. Małgorzaty",
    "ulica": "Raciborowice 2",
    "nd": "07:30, 09:00, 11:00, 17:00",
    "pos": {
        "lat": 50.11818,
        "long": 20.031037
    },
    "www": "http://www.parafia-raciborowice.pl/"
}, {
    "parafia": "św. Marii Magdaleny",
    "ulica": "ul. Niebieska 53",
    "nd": "08:00, 11:00, 15:00",
    "pos": {
        "lat": 49.995166,
        "long": 19.989279
    },
    "www": ""
}, {
    "parafia": "św. Marii Magdaleny Kraków Witkowice",
    "ulica": "ul. Dożynkowa 35, Witkowice",
    "nd": "08:00, 10:00 (kaplica szpitalna), 11:30, 16:15",
    "pos": {
        "lat": 50.103047,
        "long": 19.944477
    },
    "www": "http://www.parafiakrakowwitkowice.pl/"
}, {
    "parafia": "św. Marka Ewangelisty",
    "ulica": "ul. św. Marka 10",
    "nd": "09:00, 10:15, 11:30, 15:30",
    "pos": {
        "lat": 50.064645,
        "long": 19.93737
    },
    "www": ""
}, {
    "parafia": "św. Mikołaja",
    "ulica": "ul. Kopernika 9",
    "nd": "06:30, 08:00, 09:30, 11:30 (dla dzieci), 13:00, 15:00, 19:00",
    "pos": {
        "lat": 50.060975,
        "long": 19.947186
    },
    "www": "http://www.mikolaj.diecezja.pl/"
}, {
    "parafia": "Św. Pawła Apostoła",
    "ulica": "ul. Jaśminowa 2, Wieliczka - Krzyszkowice",
    "nd": "07:00, 09:00, 11:00, 13:00, 15:00, 18:00",
    "pos": {
        "lat": 49.988365,
        "long": 20.03215
    },
    "www": "http://swpawel.wieliczka.pl/"
}, {
    "parafia": "św. Piotra i Pawła",
    "ulica": "ul. Grodzka 52a",
    "nd": "08:00, 09:30, 11:00, 12:30, 18:00",
    "pos": {
        "lat": 50.056709,
        "long": 19.938474
    },
    "www": "http://www.apostolowie.pl/"
}, {
    "parafia": "św. Rafała Kalinowskiego",
    "ulica": "ul. Komuny Paryskiej 29",
    "nd": "08:00; 10:00; 12;00; 18:30",
    "pos": {
        "lat": 49.999664,
        "long": 19.89535
    },
    "www": "http://www.kalinowski.malopolska.pl/"
}, {
    "parafia": "św. Stanislawa BM",
    "ulica": "ul. Półkole 9",
    "nd": "07:00, 08:30, 10:00, 11:30, 13:00, 19:00",
    "pos": {
        "lat": 50.060581,
        "long": 19.983675
    },
    "www": "http://www.parafia.dabiekrakow.pl/"
}, {
    "parafia": "św. Stanislawa BM",
    "ulica": "ul. Gaik 7",
    "nd": "08:00, 10:30, 15:00",
    "pos": {
        "lat": 50.112936,
        "long": 19.896143
    },
    "www": ""
}, {
    "parafia": "św. Stanislawa BM",
    "ulica": "Kantorowice 122",
    "nd": "09:00, 11:00, 18:00",
    "pos": {
        "lat": 50.109906,
        "long": 20.049309
    },
    "www": "http://www.kantorowice.pl/"
}, {
    "parafia": "św. Stanisława Kostki",
    "ulica": "ul. Konfederacka 6",
    "nd": "07:00, 08:30, 10:00, 11:30, 13:00 (z wyjątkiem wakacji), 18:00, 20:00 (w wakacje)",
    "pos": {
        "lat": 50.049548,
        "long": 19.927132
    },
    "www": "http://debniki.sdb.org.pl/"
}, {
    "parafia": "św. Szczepana",
    "ulica": "ul. Sienkiewicza 19",
    "nd": "06:30, 08:00, 09:30, 11:00, 12:30, 14:00, 18:00, 19:30",
    "pos": {
        "lat": 50.071962,
        "long": 19.926968
    },
    "www": "http://swszczep.linuxpl.info/"
}, {
    "parafia": "św. Tomasza Apostoła",
    "ulica": "ul. Szpitalna 12",
    "nd": "0,333473611111111",
    "pos": {
        "lat": 50.062394,
        "long": 19.940819
    },
    "www": "http://kanoniczki.pl/"
}, {
    "parafia": "św. Wincentego",
    "ulica": "ul. Nadbrzezie 12",
    "nd": "07:20, 11:00, Krzeslawice - 09:30",
    "pos": {
        "lat": 50.068586,
        "long": 20.107786
    },
    "www": ""
}, {
    "parafia": "św. Wincentego a Paulo (Misjonarze)",
    "ulica": "ul. Filipa 19",
    "nd": "5:30, 6:00, 7:30, 9:00, 10:30, 12:00, 16:30",
    "pos": {
        "lat": 50.067999,
        "long": 19.941749
    },
    "www": ""
}, {
    "parafia": "św. Wojciecha",
    "ulica": "ul. św. Wojciecha 4",
    "nd": "07:30, 09:00, 10:30, 12:00, 13:00 (bez VII i VIII), 18:00 (od VI do VIII o 19:00)",
    "pos": {
        "lat": 50.074818,
        "long": 19.89559
    },
    "www": "http://swwojciech.idl.pl/"
}, {
    "parafia": "św. Wojciecha",
    "ulica": "Rynek Główny 2",
    "nd": "0,437640277777778",
    "pos": {
        "lat": 50.060883,
        "long": 19.937737
    },
    "www": "http://www.kosciolwojciecha.pl/"
}, {
    "parafia": "Świętej Trójcy (parafia OO. Bonifratrów)",
    "ulica": "ul. Krakowska 48",
    "nd": "09:30, 11:30, 18:30",
    "pos": {
        "lat": 50.047241,
        "long": 19.943938
    },
    "www": "http://www.bonifratrzy.pl/index.php?option=18&action=articles_show&art_id=20&menu_id=58&page=10"
}, {
    "parafia": "Wspomożycielki Wiernych (Salezjanie)",
    "ulica": "ul. Tyniecka 39",
    "nd": "07:30, 10:00, 12:00, 18:00",
    "pos": {
        "lat": 50.049685,
        "long": 19.910239
    },
    "www": "http://losiowkasdb.pl/"
}, {
    "parafia": "Wszystkich Świętych",
    "ulica": "ul. Podbiałowa 6",
    "nd": "07:00, 09:00 (kaplica Wolica), 10:30 (kaplica Kościelniki), 12:00, 18:00 (kaplica Wolica), 19:00 (kaplica Kościelniki)",
    "pos": {
        "lat": 50.107768,
        "long": 20.169032
    },
    "www": ""
}, {
    "parafia": "Zesłania Ducha Świętego",
    "ulica": "ul. Rostworowskiego 13",
    "nd": "07:15, 08:30, 10:00, 11:30 (dla dzieci), 13:00, 16:00, 18:00, 19:30 (dla młodzieży)",
    "pos": {
        "lat": 50.027918,
        "long": 19.915358
    },
    "www": "http://www.ruczaj.diecezja.pl/"
}, {
    "parafia": "Zmartwychwstania Pańskiego",
    "ulica": "ul. Szkolna 4",
    "nd": "07:00, 08:30, 10:00, 11:30 (dla dzieci w dolnym kościele), 13:00, 18:00, 19:30",
    "pos": {
        "lat": 50.023458,
        "long": 19.96496
    },
    "www": "http://www.wola.kosciolcr.pl/"
}, {
    "parafia": "Zmartwychwstania Pańskiego",
    "ulica": "ul. Łobzowska 10",
    "nd": "09:00, 10:30, 12:00, 18:30",
    "pos": {
        "lat": 50.066719,
        "long": 19.93392
    },
    "www": ""
}, {
    "parafia": "Zmartwychwstania Pańskiego - kaplica",
    "ulica": "ul. Rakowicka 26/18",
    "nd": "09:00, 10:00, 11:10, 12:00 (j. łaciński), 13:00 (od listopada do Wielkanocy), 16:00 (październik), 17:00 (maj - czerwiec)",
    "pos": {
        "lat": 50.073582,
        "long": 19.956316
    },
    "www": "http://www.diecezja.pl/pl/parafie/506"
}]
